<svg width="258" height="372" xmlns="http://www.w3.org/2000/svg">
 <g>
  <title>Layer 1</title>
  <circle fill="url(#svg_12)" id="svg_1" r="53.618" cy="53.617996" cx="127.549337"/>
  <path fill="url(#svg_12)" id="svg_2" d="m88.625336,115.22699c5.928986,-0.257996 78.879974,-0.257996 83.261993,0.257996c4.382019,0.516014 81.200012,81.200012 83.005005,83.003998c11.856995,12.889008 -11.857971,31.707001 -22.684998,22.684998c-4.382996,-4.381989 -50.008972,-50.008987 -50.008972,-50.008987l0,41.244003l-109.297028,0l0,-39.182007c0,0 -45.110992,45.626007 -48.977997,48.977997c-11.34201,9.537994 -31.96402,-13.147003 -20.623016,-25.263c5.156006,-5.154999 79.396027,-81.457001 85.325012,-81.714996z"/>
  <path fill="url(#svg_12)" id="svg_3" d="m72.385345,237.412994l41.501984,39.440002l-27.839996,30.93399c0,0 30.160004,32.479004 32.995026,35.830994c12.630981,15.982025 -17.013,34.542023 -25.004028,26.809021c-4.639984,-4.897003 -55.937988,-60.062012 -60.319977,-65.476013c-9.022003,-11.600006 -3.608002,-22.68399 0,-27.324005c3.608978,-4.640991 38.666992,-40.213989 38.666992,-40.213989z"/>
  <path fill="url(#svg_12)" id="svg_4" d="m185.243347,237.412994l-41.502014,39.440002l27.840027,30.93399c0,0 -30.160034,32.479004 -32.996033,35.830994c-12.630981,15.982025 17.014038,34.542023 25.005005,26.809021c4.640015,-4.897003 55.937988,-60.062012 60.319031,-65.476013c9.021973,-11.600006 3.609009,-22.68399 0,-27.324005c-3.608032,-4.640991 -38.666016,-40.213989 -38.666016,-40.213989z"/>
  <path id="svg_7" d="m70.199997,211.800003l-2,25.399994l45.157005,42.599991l30.267998,0l45.175003,-42.799988l-4.035995,-25.199997" stroke-linecap="null" stroke-linejoin="null" stroke-dasharray="null" stroke-width="null" fill="url(#svg_14)"/>
 </g>
 <defs>
  <linearGradient y2="1" x2="0" y1="0" x1="0" spreadMethod="reflect" id="svg_12">
   <stop offset="0" stop-opacity="0.996094" stop-color="#ffe7d1"/>
   <stop offset="1" stop-opacity="0.988281" stop-color="#ffb97c"/>
  </linearGradient>
  <radialGradient r="0.5" cy="0.5" cx="0.5" spreadMethod="reflect" id="svg_14">
   <stop offset="0" stop-color="#ffffff"/>
   <stop offset="1" stop-opacity="0.992188" stop-color="#ededed"/>
  </radialGradient>
 </defs>
</svg>