<svg width="313" height="235" xmlns="http://www.w3.org/2000/svg">
 <g>
  <title>Layer 1</title>
  <g id="svg_4">
   <path transform="rotate(-105 153.218 117.296)" id="svg_5" fill="#00c7ff" d="m116.182968,9.678248c-11.848999,4.468994 -40.622986,45.499986 -46.041016,136.49999c-2.708984,69.334015 34.666016,107.25 70.416016,104c80.708984,-13 95.875,-137.582008 95.875,-172.250008c0,-61.207989 -24.375,-90.45799 -65,-93.70799s-74.75,66.082994 -74.75,66.082994s1.853027,-20.749985 19.5,-40.624986z"/>
   <path transform="rotate(-105 155.689 116.001)" id="svg_6" fill="#FFFFFF" d="m207.960648,107.494835c10.83197,-124.583998 -38.458984,-105.624997 -38.458984,-105.624997s-58.443001,12.854004 -72.584053,111.354001c-20.040955,142.687981 60.667061,117.229988 60.667061,117.229988s-55.249031,-3.792999 -51.999031,-67.167999c16.914978,63.692017 56.331978,46.584015 56.331978,46.584015s75.29303,-22.75 52.54303,-179.834005c2.165955,27.084002 -1.082031,71.499983 -6.5,77.458998z"/>
  </g>
 </g>
</svg>
