<?xml version="1.0" encoding="iso-8859-1"?>
<!-- Generator: Adobe Illustrator 16.0.0, SVG Export Plug-In . SVG Version: 6.00 Build 0)  -->
<!DOCTYPE svg PUBLIC "-//W3C//DTD SVG 1.1//EN" "http://www.w3.org/Graphics/SVG/1.1/DTD/svg11.dtd">
<svg version="1.1" id="Layer_1" xmlns="http://www.w3.org/2000/svg" xmlns:xlink="http://www.w3.org/1999/xlink" x="0px" y="0px"
	 width="1280px" height="800px" viewBox="0 0 1280 800" style="enable-background:new 0 0 1280 800;" xml:space="preserve">
<g>
	<path style="fill:#CC0000;" d="M348.194,217.201c-11.849,4.469-40.624,45.5-46.041,136.5c-2.709,69.334,34.666,107.25,70.416,104
		c80.709-13,95.875-137.582,95.875-172.25c0-61.208-24.375-90.458-65-93.708s-74.75,66.083-74.75,66.083
		S330.546,237.076,348.194,217.201z"/>
	<path style="fill:#FFFFFF;" d="M438.112,319.035c10.832-124.584-38.459-105.625-38.459-105.625s-58.444,12.854-72.584,111.354
		c-20.041,142.688,60.667,117.23,60.667,117.23s-55.249-3.793-51.999-67.168c16.915,63.692,56.332,46.584,56.332,46.584
		s75.293-22.75,52.543-179.834C446.778,268.66,443.529,313.076,438.112,319.035z"/>
</g>
<g>
	<path style="fill:#0000CC;" d="M761.193,222.201c-11.849,4.469-40.623,45.5-46.041,136.5c-2.709,69.334,34.666,107.25,70.416,104
		c80.709-13,95.875-137.582,95.875-172.25c0-61.208-24.375-90.458-65-93.708s-74.75,66.083-74.75,66.083
		S743.546,242.076,761.193,222.201z"/>
	<path style="fill:#FFFFFF;" d="M851.111,324.035c10.832-124.584-38.459-105.625-38.459-105.625s-58.443,12.854-72.584,111.354
		c-20.041,142.688,60.667,117.23,60.667,117.23s-55.249-3.793-51.999-67.168c16.915,63.692,56.332,46.584,56.332,46.584
		s75.293-22.75,52.543-179.834C859.777,273.66,856.529,318.076,851.111,324.035z"/>
</g>
</svg>
